数据分析报告
…
本文是对于Mattingly发表于2017年Comparative Political Studies期刊上“Colonial legacies and state institutions in China: evidence from a natural experiment.”一文的完整复现研究。该文被认为是使用相对巧妙的自然实验设计，在真实的历史条件下研究国家能力建设的长期效应的成功案例。通过地理断点回归的设计，比较那些在日本侵华战争时期，位于伪满洲国西部边界两侧 —— 即那些处在当时官僚体系建设方面相对有效的伪满洲国政权直接控制下，与处在其西侧由蒙古旧王公凭借日本支持而成立的半自治性质的伪蒙疆联合自治政府控制下、行政管理体制相对松散的乡镇，发现二者在日后的教育和医疗水平、经济发展以及行政密度等方面均存在显著差异。据此，作者得出结论，认为早期国家能力建设相对投入多少是导致这些差异的主要原因。

而本文则使用由作者直接提供的原始数据，重新进行独立分析，以试图验证上述结论的可靠性。研究遵循研究复现（replication）的一般流程。具体来说，本文首先按照作者在文章中描述的方法，检验其主要结果。并进一步，使用近年来关于地理断点回归发展出的更精细的计量方法，发现了作者在其原研究的数据分析和结论推导过程确实存在着一些不容忽略的问题。

在写作结构上参考其他复现性研究写作思路，本文包含了大部分原始R代码和对应的文字解释部分。以及为了清晰性，对所有结果均作了可视化处理，而非以单纯的回归表格的形式呈现。

数据、方法和分析过程

数据来源

即作者提供的原始数据，其中地理数据为伪满州国的历史边界和2000年现今区县级行政区边界的shp文件，乡镇层级数据则来自添加了地理编码的2000年第五次人口普查数据。

dt <- read_csv("township_data.csv"); dt

## # A tibble: 618 x 19
##       X1 treat forcing border_longitude border_latitude light_stable  soil
##    <dbl> <dbl>   <dbl>            <dbl>           <dbl>        <dbl> <dbl>
##  1     1     0   -197.             116.            41.6            0     3
##  2     2     0   -181.             116.            41.6            0     2
##  3     3     0   -139.             116.            41.6            0     1
##  4     4     0   -163.             116.            41.6            0     1
##  5     5     0   -151.             116.            41.6            0     1
##  6     6     0   -190.             116.            43.2            8     1
##  7     7     0   -189.             116.            43.2            7     1
##  8     8     0   -116.             116.            41.6            0     1
##  9     9     0   -125.             116.            41.6            0     1
## 10    10     0   -134.             116.            41.6            8     1
## # ... with 608 more rows, and 12 more variables: slope_srtm <dbl>,
## #   yearly_pre <dbl>, han_pct <dbl>, monglian_pct <dbl>, mining <dbl>,
## #   government_pct <dbl>, improved_sanitation_pct <dbl>, above_primary <dbl>,
## #   non_agricultural <dbl>, higher_income <dbl>, point_x <dbl>, point_y <dbl>
…
